<svg width="427" height="427" viewBox="0 0 427 427" fill="none" xmlns="http://www.w3.org/2000/svg">
<path d="M213.333 0C95.518 0 0 95.514 0 213.333C0 331.152 95.518 426.666 213.333 426.666C331.161 426.666 426.666 331.152 426.666 213.333C426.666 95.514 331.157 0 213.333 0ZM174.199 322.918L80.264 228.987L111.573 197.678L174.199 260.3L315.093 119.402L346.402 150.711L174.199 322.918Z" fill="white"/>
</svg>
